{
    "id": "banquetMenu",
    "name": "Banquets",
    "link": "/docs/banquetMenu.pdf",
    "contents": {
        "items": [
            {
                "id": "banquetNote-1",
                "name": "",
                "price": "",
                "description": "Our Canal Room is adjoined to the front bar room, and seats over 50 people comfortably. We would be happy to help you book it for a private event."
            },
            {
                "id": "banquetNote-2",
                "name": "",
                "price": "",
                "description": "Special menus are available, or can be tailored to fit your needs."
            },
            {
                "id": "banquetNote-3",
                "name": "",
                "price": "",
                "description": "Don't hesitate to contact us for more details!"
            }
        ],
        "tabs": [
        ]
    }
}
